<?xml version="1.0" standalone="no"?>
<!DOCTYPE svg PUBLIC "-//W3C//DTD SVG 1.1//EN" "http://www.w3.org/Graphics/SVG/1.1/DTD/svg11.dtd" >
<svg xmlns="http://www.w3.org/2000/svg">
<metadata>Generated by IcoMoon</metadata>
<defs>
<font id="Shopkeeper-Icon-Font" horiz-adv-x="1024">
<font-face units-per-em="1024" ascent="960" descent="-64" />
<missing-glyph horiz-adv-x="1024" />
<glyph unicode="&#x20;" horiz-adv-x="512" d="" />
<glyph unicode="&#xe900;" glyph-name="warning" d="M514.337 893.586h-2.391c-256.059 0-465.484-208.388-466.865-464.543-0.618-124.733 47.318-242.226 135.058-330.867s204.753-137.802 329.486-138.428h2.43c256.078 0 465.514 208.357 466.865 464.455 0.618 124.771-47.357 242.265-135.088 330.944-87.739 88.622-204.753 137.821-329.486 138.439zM512.046 20.010l-2.107 0.039c-108.627 0.51-210.533 43.33-286.919 120.549-76.424 77.188-118.188 179.497-117.639 288.124 1.175 223.073 183.592 404.558 406.566 404.558h2.077c108.627-0.549 210.533-43.361 286.957-120.579s118.188-179.574 117.639-288.201c-1.136-223.023-183.562-404.489-406.566-404.489zM481.804 619.269h60.299v-262.68h-60.299v262.68zM479.981 266.017c-8.356-8.513-13.304-20.055-13.304-31.938s4.948-23.59 13.304-32.123c8.318-8.318 20.024-13.127 31.908-13.127s23.59 4.809 32.123 13.127c8.356 8.513 13.127 20.239 13.127 32.123s-4.79 23.414-13.127 31.938c-16.85 16.831-47.192 16.831-64.022 0z" />
<glyph unicode="&#xe901;" glyph-name="arrow-left" d="M854.724 390.084h-585.322l186.766-165.584c15.404-13.48 17.328-38.51 3.848-53.914s-38.51-17.328-53.914-3.848l-261.856 232.972c-7.702 7.702-13.48 17.328-13.48 28.884s3.848 21.182 13.48 28.884l259.932 232.972c7.702 5.778 17.328 9.626 25.030 9.626 11.55 0 21.182-3.848 28.884-13.48 13.48-15.404 13.48-40.434-3.848-53.914l-184.842-165.584h585.322c21.182 0 38.51-17.328 38.51-38.51s-17.328-38.51-38.51-38.51z" />
<glyph unicode="&#xe902;" glyph-name="arrow-right" d="M169.276 390.084h585.322l-186.766-165.584c-15.404-13.48-17.328-38.51-3.848-53.914s38.51-17.328 53.914-3.848l261.856 232.972c7.702 7.702 13.48 17.328 13.48 28.884s-3.848 21.182-13.48 28.884l-259.932 232.972c-7.702 5.778-17.328 9.626-25.030 9.626-11.55 0-21.182-3.848-28.884-13.48-13.48-15.404-13.48-40.434 3.848-53.914l184.842-165.584h-585.322c-21.182 0-38.51-17.328-38.51-38.51s17.328-38.51 38.51-38.51z" />
<glyph unicode="&#xe903;" glyph-name="view" d="M511.898 87.459c-88.495 0-183.806 31.287-275.638 90.498-66.59 42.93-132.877 102.282-177.317 158.775-21.423 27.561-33.078 58.192-33.874 88.799-0.022 0.749-0.022 1.511 0 2.285 0.796 30.595 12.451 61.249 33.711 88.587 44.604 56.669 110.925 116.021 177.587 158.973 91.868 59.199 187.214 90.498 275.721 90.498 88.424 0 183.665-31.297 275.474-90.508 66.578-42.93 132.852-102.269 177.305-158.751 21.507-27.375 33.266-58.074 34.062-88.81 0.022-0.762 0.022-1.533 0-2.285-0.796-30.748-12.557-61.437-34.015-88.765-44.5-56.516-110.796-115.893-177.374-158.81-91.834-59.199-187.144-90.486-275.638-90.486zM112.159 426.665c0.608-11.596 5.903-24.13 15.379-36.312 58.625-74.509 214.648-215.83 384.361-215.83 169.691 0 325.736 141.309 384.537 216.028 9.499 12.065 14.805 24.529 15.414 36.1-0.621 11.573-5.927 24.036-15.438 36.136-58.778 74.684-214.799 215.994-384.327 215.994-169.844 0-325.912-141.309-384.713-216.028-9.323-11.971-14.618-24.492-15.216-36.089zM511.898 272.247c-85.132 0-154.393 69.261-154.393 154.393 0 85.167 69.273 154.44 154.393 154.44 16.435 0 33.933-2.612 45.67-6.783 17.57-6.266 29.576-22.091 30.513-40.294 0.48-9.009-1.395-30.783-27.504-45.167-1.921-2.683-5.141-8.996-5.141-15.953 0-11.667 9.476-21.178 21.143-21.178 4.708 0 9.1 1.417 11.232 2.413 7.532 7.508 17.815 16.539 34.952 16.539 23.544 0 42.801-18.718 43.516-42.237 0.022-0.433 0.022-1.323 0.022-1.758 0-85.157-69.273-154.418-154.406-154.418zM468.489 478.099c-14.618-12.369-23.918-30.842-23.918-51.456 0-37.121 30.197-67.317 67.328-67.317 12.639 0 24.457 3.492 34.578 9.558-45.061 13.072-78.104 54.748-78.104 103.978-0.012 1.758 0.035 3.492 0.116 5.235z" />
<glyph unicode="&#xe904;" glyph-name="heart-full" horiz-adv-x="1120" d="M559.844 38.753c33.454 33.448 224.435 224.536 343.828 343.916 106.965 106.977 104.686 262.895 7.432 359.623-97.254 96.755-254.515 96.327-351.259-0.932-96.739 97.264-253.996 97.687-351.251 0.932-97.254-96.728-99.528-252.646 7.432-359.623 119.385-119.378 310.39-310.467 343.822-343.916z" />
<glyph unicode="&#xe905;" glyph-name="heart" horiz-adv-x="1170" d="M585.389 21.328c-10.738 0.048-20.435 4.47-27.403 11.576l-363.65 369.827c-44.584 45.836-72.078 108.495-72.078 177.575s27.493 131.739 72.135 177.634c44.459 45.684 106.62 74.059 175.403 74.059 0.067 0 0.128 0 0.195 0h-0.010c0.558 0.006 1.215 0.009 1.872 0.009 68.549 0 130.505-28.225 174.883-73.693l38.652-38.653 38.602 38.602c44.484 45.515 106.488 73.735 175.089 73.735 0.466 0 0.935-0.002 1.399-0.005h-0.071c0.101 0 0.219 0 0.335 0 68.544 0 130.501-28.225 174.874-73.684 44.632-45.883 72.125-108.542 72.125-177.625s-27.493-131.739-72.135-177.634l-362.428-370.148c-7.012-7.151-16.772-11.581-27.569-11.581-0.080 0-0.16 0-0.238 0.001zM369.982 754.791v0c-47.228-0.011-89.9-19.523-120.403-50.915-31.066-31.92-50.2-75.512-50.2-123.569s19.134-91.649 50.2-123.569l335.81-341.599 335.849 342.025c31.027 31.879 50.161 75.471 50.161 123.531s-19.134 91.649-50.2 123.569c-30.481 31.175-73.016 50.532-120.073 50.532-0.253 0-0.504-0.001-0.753-0.002h0.039c-47.228-0.011-89.9-19.523-120.403-50.915l-67.21-68.369c-6.976-7.114-16.673-11.535-27.4-11.581h-0.010c-10.738 0.048-20.435 4.47-27.403 11.576l-67.561 68.335c-30.543 31.436-73.214 50.944-120.439 50.956z" />
<glyph unicode="&#xe906;" glyph-name="menu" d="M896.32 648.215h-700.824c-24.864 0-45.216 20.344-45.216 45.216s20.344 45.216 45.216 45.216h700.824c24.864 0 45.216-20.344 45.216-45.216s-20.344-45.216-45.216-45.216zM896.32 381.447h-768.64c-24.864 0-45.216 20.344-45.216 45.216s20.344 45.216 45.216 45.216h768.64c24.864 0 45.216-20.344 45.216-45.216s-20.344-45.216-45.216-45.216zM896.32 114.687h-610.392c-24.864 0-45.216 20.344-45.216 45.216s20.344 45.216 45.216 45.216h610.392c24.864 0 45.216-20.344 45.216-45.216s-20.344-45.216-45.216-45.216z" />
<glyph unicode="&#xe907;" glyph-name="search" d="M503.36 80.276c-101.711 0-195.753 38.381-266.752 111.304-147.77 147.77-147.77 387.658 0 535.428 71.008 71.008 166.965 111.304 266.752 111.304s195.753-38.381 266.752-111.304c147.77-147.77 147.77-387.658 0-535.428-71.008-71.008-165.041-111.304-266.752-111.304zM503.36 759.635c-80.601 0-155.448-30.703-213.024-88.279-117.067-117.067-117.067-308.972 0-426.039 57.576-57.576 132.414-88.279 213.024-88.279s155.448 30.703 213.024 88.279c117.067 117.067 117.067 308.972 0 426.039-57.576 57.576-132.414 88.279-213.024 88.279zM892.933 15.022c-9.593 0-19.195 3.839-26.864 11.517l-151.609 151.609c-15.356 15.356-15.356 38.381 0 53.737s38.381 15.356 53.737 0l151.609-151.609c15.356-15.356 15.356-38.381 0-53.737-7.678-7.678-17.271-11.517-26.864-11.517z" />
<glyph unicode="&#xe908;" glyph-name="cart-shopkeeper" d="M392.534 81.066c0-40.059-32.474-72.533-72.533-72.533s-72.533 32.474-72.533 72.533c0 40.059 32.474 72.533 72.533 72.533s72.533-32.474 72.533-72.533zM883.201 81.066c0-40.059-32.474-72.533-72.533-72.533s-72.533 32.474-72.533 72.533c0 40.059 32.474 72.533 72.533 72.533s72.533-32.474 72.533-72.533zM1015.468 686.933c-8.533 12.8-21.333 21.333-38.4 21.333h-533.333c-21.333 0-38.4-21.333-38.4-38.4s21.333-38.4 38.4-38.4h469.333l-98.133-251.733-473.6-59.733-128 494.933c0 21.333-17.067 29.867-38.4 29.867h-132.267c-25.6 0-42.667-21.333-42.667-38.4s21.333-42.667 42.667-42.667h98.133l128-503.467c4.267-21.333 21.333-29.867 38.4-29.867h8.533l533.333 68.267c17.067 0 25.6 8.533 34.133 25.6l132.267 332.8c8.533 0 8.533 21.333 0 29.867z" />
<glyph unicode="&#xe909;" glyph-name="coupon" d="M940.448 191.042c-15.792 0-27.873-6.502-36.751-11.223-2.591-1.403-6.453-3.451-7.484-3.604-1.014 0-6.491 1.905-18.074 40.098-0.819 2.775-1.516 5.048-2.007 6.491-9.748 29.338-33.555 58.747-57.989 86.2l19.968 272.138c0 55.132-16.015 109.445-46.264 157.041l-11.1 17.439-45.793-358.615-79.524 74.588v40.969h-30.812v-129.976l20.55-0.009 83.415-80.056-7.588-106.496v-22.416c0-8.059-1.249-8.059-3.267-8.059-1.761 0-4.209 0.399-7.385 1.137-8.817 2.499-13.075 3.4-22.61 3.4-40.96 0-69.571-33.198-69.571-80.763 0-49.623 39.956-94.822 83.877-94.822 39.67 0 67.369 32.881 67.369 80.036 0 16.077-3.716 32.256-7.322 47.964-3.4 14.756-6.902 30.024-6.902 44.175 0 32.236 19.067 67.82 37.509 88.402 11.191-6.471 22.231-16.445 33.649-30.362 26.47-32.623 34.755-55.419 43.377-94.259 1.065-4.28 2.068-8.663 3.215-13.844 2.939-13.156 5.98-26.757 11.53-39.363 15.882-36.362 43.039-57.221 74.568-57.221 37.56 0 65.935 32.082 65.935 74.68 0.029 49.49-41.073 96.328-84.521 96.328zM701.324 33.080c-27.597 0-48.241 29.716-48.241 56.238 0 20.357 13.517 41.441 36.116 41.441 29.778 0 45.343-28.682 45.343-56.955 0-19.999-12.431-40.724-33.219-40.724zM954.733 57.861c-23.808 0-43.919 38.779-43.919 63.14 0 19.519 17.060 29.778 33.915 29.778 23.296 0 46.090-32.123 46.090-56.064-0.009-23.429-13.138-36.854-36.086-36.854zM624.626 858.823h30.812v-129.966h-30.812v129.966zM624.626 339.42h30.812v-129.956h-30.812v129.956zM624.626 685.686h30.812v-129.966h-30.812v129.966zM990.46 314.762h-123.923v37.745h86.18v271.739l-86.159-0.102-0.041 37.745 123.946 0.164v-347.29zM324.186 386.34c17.961 20.142 32.471 42.734 42.815 61.204 7.342-0.389 14.878 1.096 21.852 4.772 20.644 10.865 28.508 36.371 17.644 56.975-10.854 20.623-36.371 28.508-56.986 17.633-20.582-10.875-28.498-36.383-17.623-56.975 1.219-2.304 2.632-4.424 4.188-6.4-8.724-15.493-19.794-32.594-32.512-47.923l-50.371 71.455 90.962 136.735 237.343 0.328-0.052 37.745-257.526-0.358-116.471-175.063 68.965-97.864c-14.664-11.54-30.546-19.036-46.991-19.036-40.765 0-43.919 17.459-50.209 52.235-4.946 27.29-11.092 61.256-43.254 83.681-31.539 21.996-66.058 20.869-97.198-3.205-0.009-0.009-0.029-0.009-0.041-0.029-21.586-16.712-34.426-39.146-34.959-40.090-4.762-8.387-1.802-19.046 6.595-23.788 2.726-1.536 5.673-2.273 8.591-2.273 6.083 0 11.991 3.185 15.206 8.858 0.102 0.174 10.107 17.418 25.958 29.686 0 0 0.009 0.009 0.009 0.009 19.098 14.766 36.844 15.442 55.861 2.191 20.357-14.193 24.484-37.048 28.867-61.256 6.185-34.161 14.643-80.937 84.572-80.937 24.812 0 47.309 10.363 67.020 25.559l32.020-45.445h253.010v37.745h-233.431l-23.859 33.833z" />
<glyph unicode="&#xe90a;" glyph-name="user-account" d="M512.001 938.661c-281.595 0-511.994-228.43-511.994-511.994 0-133.915 53.163-257.972 137.851-348.551 1.968-1.968 3.937-3.937 3.937-5.906 92.547-96.499 224.494-157.536 368.25-157.536 281.595 0 511.994 228.43 511.994 511.994 1.968 281.595-228.43 511.994-510.025 511.994zM512.001-8.527c-100.436 0-194.952 35.448-267.815 92.547 112.246 39.384 161.473 86.642 181.172 122.089 23.636-7.874 49.227-13.779 78.768-13.779h7.874c31.51 0 59.083 5.906 82.705 15.748 5.906-9.843 11.811-21.667 23.636-33.478 33.478-37.416 86.642-66.957 159.505-92.547-72.862-55.133-165.411-90.579-265.846-90.579zM350.528 533.009v0c5.906 149.662 108.31 165.411 153.6 165.411 1.968 0 1.968 0 3.937 0s1.968 0 3.937 0c0 0 1.968 0 3.937 0 43.321 0 145.726-15.748 153.6-163.442v-1.968c3.937-39.384 3.937-157.536-51.195-220.556-25.605-29.542-59.083-43.321-104.373-43.321v0 0c-45.29 0-78.768 13.779-104.373 43.321-74.832 74.832-59.083 218.588-59.083 220.556zM840.867 143.104c-147.694 39.384-175.267 90.579-181.172 106.342 3.937 3.937 7.874 7.874 11.811 11.811 84.674 96.499 72.862 259.94 70.894 277.657-7.874 173.299-127.995 236.305-228.43 236.305-1.968 0-3.937 0-3.937 0-1.968 0-1.968 0-3.937 0-100.436 0-220.556-61.051-228.43-236.305-1.968-17.717-15.748-181.172 70.894-277.657 3.937-5.906 9.843-9.843 15.748-15.748-1.968-3.937-5.906-9.843-13.779-17.717-21.667-21.667-66.957-55.133-165.411-84.674-64.989 76.8-104.373 175.267-104.373 281.595 0 240.241 194.952 435.194 435.194 435.194s435.194-194.952 435.194-435.194c-3.937-106.342-43.321-204.795-110.278-281.595z" />
<glyph unicode="&#xe90b;" glyph-name="spk_error" d="M512 903.165c-263.278 0-476.498-213.22-476.498-476.498s213.22-476.498 476.498-476.498 476.498 213.22 476.498 476.498c0 263.278-213.22 476.498-476.498 476.498zM512 22.475c-222.49 0-402.338 181.702-402.338 402.338s181.702 402.338 402.338 402.338c222.49 0 402.338-181.702 402.338-402.338s-179.848-402.338-402.338-402.338zM621.386 536.063c-14.832 14.832-37.080 14.832-51.912 0l-57.474-57.474-57.474 57.474c-14.832 14.832-37.080 14.832-51.912 0s-14.832-37.080 0-51.912l57.474-57.474-57.474-57.474c-14.832-14.832-14.832-37.080 0-51.912 7.416-7.416 16.686-11.124 25.956-11.124s18.54 3.708 25.956 11.124l57.474 57.474 57.474-57.474c7.416-7.416 16.686-11.124 25.956-11.124s18.54 3.708 25.956 11.124c14.832 14.832 14.832 37.080 0 51.912l-57.474 57.474 57.474 57.474c14.832 14.832 14.832 37.080 0 51.912z" />
<glyph unicode="&#xe90c;" glyph-name="spk_check" d="M512 903.165c-263.278 0-476.498-213.22-476.498-476.498s213.22-476.498 476.498-476.498 476.498 213.22 476.498 476.498c0 263.278-213.22 476.498-476.498 476.498zM512 22.475c-222.49 0-402.338 181.702-402.338 402.338s181.702 402.338 402.338 402.338c222.49 0 402.338-181.702 402.338-402.338s-179.848-402.338-402.338-402.338zM625.104 536.063l-140.914-140.914-57.474 57.474c-14.832 14.832-37.080 14.832-51.912 0s-14.832-37.080 0-51.912l81.576-81.576c0 0 0-1.854 1.854-3.708 7.416-7.416 16.686-12.978 25.956-12.978 0 0 0 0 0 0s0 0 0 0c9.27 0 18.54 5.562 25.956 12.978 0 0 0 1.854 1.854 1.854l165.016 166.87c14.832 14.832 14.832 38.934 0 51.912-14.832 14.832-37.080 14.832-51.912 0z" />
<glyph unicode="&#xe90d;" glyph-name="diamond" horiz-adv-x="819" d="M811.706 560.912c0 0-1.039 0-1.039 1.039l-178.993 175.872h-445.402l-178.993-175.872c0 0-1.039 0-1.039-1.039-6.243-6.243-6.243-15.609-1.039-21.853l389.209-418.344c3.122-3.122 7.283-5.204 11.448-5.204 1.039 0 2.082 0 3.122 1.039 1.039 0 2.082-1.039 3.122-1.039 4.162 0 8.326 2.082 11.448 5.204l389.209 418.344c6.243 6.243 5.204 15.609-1.039 21.853zM186.269 694.114l31.218-128.002h-162.341l131.123 128.002zM408.972 706.605l130.084-141.528h-265.368l130.084 141.528h5.204zM522.403 464.129l-116.553-271.612-115.514 271.612-26.017 69.723h283.059l-24.975-69.723zM569.231 593.17l-4.162-10.405-114.471 123.84h145.693l-27.057-113.432zM246.627 581.725l-4.162 11.448-27.057 113.432h146.732l-115.514-124.88zM226.857 533.855l146.732-345.499-321.565 345.499h174.832zM585.882 533.855h180.034l-331.97-355.904 151.936 355.904zM762.793 565.074h-167.546l32.261 133.206 135.285-133.206z" />
<glyph unicode="&#xe90e;" glyph-name="load-more" horiz-adv-x="819" d="M111.556 538.221c-61.355 0-111.555-50.2-111.555-111.555s50.2-111.555 111.555-111.555c61.355 0 111.555 50.2 111.555 111.555s-50.2 111.555-111.555 111.555zM409.036 538.221c-61.355 0-111.555-50.2-111.555-111.555s50.2-111.555 111.555-111.555c61.355 0 111.555 50.2 111.555 111.555s-50.2 111.555-111.555 111.555zM706.516 538.221c-61.355 0-111.555-50.2-111.555-111.555s50.2-111.555 111.555-111.555c25.099 0 49.271 8.367 67.863 23.241 8.367 6.507 9.296 17.663 3.719 26.030s-17.663 9.296-26.030 3.719v0c-12.086-9.296-27.889-15.803-44.622-15.803-40.904 0-74.37 33.466-74.37 74.37s33.466 74.37 74.37 74.37c40.904 0 74.37-33.466 74.37-74.37 0-10.226 8.367-18.593 18.593-18.593s18.593 8.367 18.593 18.593c0 0 0 0 0 0.929-0.929 60.426-51.129 110.626-112.485 110.626zM111.556 501.036c40.904 0 74.37-33.466 74.37-74.37s-33.466-74.37-74.37-74.37c-40.904 0-74.37 33.466-74.37 74.37 0 41.833 33.466 74.37 74.37 74.37zM409.036 501.036c40.904 0 74.37-33.466 74.37-74.37s-33.466-74.37-74.37-74.37c-40.904 0-74.37 33.466-74.37 74.37 0 41.833 33.466 74.37 74.37 74.37z" />
<glyph unicode="&#xe90f;" glyph-name="reload" horiz-adv-x="819" d="M166.837 875.979c3.791 18.958 26.54 34.126 45.498 26.54 18.958-3.791 34.126-26.54 26.54-45.498-15.168-49.294-26.54-102.373-41.707-151.667 75.833 45.498 163.044 64.457 250.249 56.875 91.001-7.581 182.002-49.294 246.459-117.541 64.457-64.457 106.169-151.667 113.75-242.668 11.377-87.21-11.377-178.207-56.875-250.249-56.875-94.792-155.458-163.044-261.626-185.793-102.373-22.749-212.333-3.791-299.543 53.084-117.541 72.043-189.583 208.542-185.793 345.041 0 22.749 26.54 37.917 45.498 30.335 15.168-3.791 26.54-22.749 26.54-37.917 0-68.252 22.749-132.708 60.666-189.583 41.707-56.875 98.582-98.582 163.044-121.332 72.043-22.749 151.667-22.749 223.709 3.791 68.252 26.54 128.918 75.833 166.834 140.29 64.457 106.169 60.666 242.668-7.581 345.041-45.498 68.252-113.75 117.541-189.583 140.29-91.001 26.54-197.165 7.581-272.998-49.294 53.084-11.377 109.959-22.749 163.044-37.917 18.958-3.791 34.126-22.749 30.335-41.707s-26.54-34.126-45.498-30.335c-79.624 18.958-159.248 34.126-238.877 53.084-18.958 3.791-34.126 26.54-26.54 45.498 18.958 91.001 41.707 178.207 64.457 261.626z" />
<glyph unicode="&#xe910;" glyph-name="loader-arrow" horiz-adv-x="819" d="M816.605 446.962c0 0 0 2.385 0 0 0 205.349-162.372 370.106-362.942 370.106-21.489 0-40.591-16.712-40.591-40.591s16.712-40.591 40.591-40.591c155.206 0 281.76-128.942 281.76-288.922 0 0 0-2.385 0-2.385-2.385-4.775-2.385-9.552-2.385-14.327 0-167.145-136.102-303.249-300.859-303.249-167.145 0-300.859 136.102-300.859 300.859 0 0 0 0 0 0 0 45.368 9.552 90.736 31.041 131.327l16.712-42.983c7.167-16.712 21.489-26.264 38.206-26.264 4.775 0 9.552 0 16.712 2.385 21.489 9.552 31.041 33.431 23.879 54.92l-47.758 114.615c0 0 0 0 0 2.385 0 0 0 0 0 2.385 0 0 0 2.385-2.385 2.385 0 0-2.385 2.385-2.385 2.385s0 0 0 2.385c0 0 0 0 0 0s0 0 0 0-2.385 2.385-2.385 2.385c0 0 0 0 0 0s0 0 0 0-2.385 0-2.385 2.385c0 0-2.385 2.385-2.385 2.385s0 0-2.385 0c0 0-2.385 0-2.385 0s-2.385 0-2.385 2.385c0 0 0 0-2.385 0 0 0-2.385 0-2.385 0-2.385 0-2.385 0-4.775 0 0 0 0 0-2.385 0 0 0-2.385 0-2.385 0-2.385 0-2.385 0-4.775 0 0 0 0 0-2.385 0l-128.942-9.552c-23.879-2.385-40.591-21.489-38.206-45.368 2.385-21.489 19.104-38.206 40.591-38.206 0 0 2.385 0 2.385 0l45.368 2.385c-26.264-52.528-40.591-112.223-40.591-171.918 0 0 0 0 0 0 0-212.515 171.918-384.433 384.433-384.433s384.433 171.918 384.433 386.82c0 14.327-2.385 19.104-2.385 23.879z" />
<glyph unicode="&#xe911;" glyph-name="video-player" horiz-adv-x="819" d="M355.715 309.317v0c-20.781 0-37.894 17.113-37.894 37.894v135.686c0 20.781 17.113 37.894 37.894 37.894 6.112 0 12.224-1.222 17.113-4.89l128.351-68.454c12.224-6.112 19.558-19.558 19.558-33.005s-7.334-26.893-19.558-33.005l-128.351-68.454c-4.89-2.445-11.002-3.667-17.113-3.667zM355.715 495.121c-6.112 0-13.446-4.89-13.446-13.446v-135.686c0-8.557 7.334-13.446 13.446-13.446v0c2.445 0 3.667 0 6.112 1.222l128.351 68.454c4.89 2.445 7.334 6.112 7.334 12.224s-2.445 9.779-7.334 12.224l-128.351 68.454c-2.445 0-3.667 0-6.112 0zM719.988 145.517h-620.975c-20.781 0-37.894 17.113-37.894 37.894v486.512c0 20.781 17.113 37.894 37.894 37.894h620.975c20.781 0 37.894-17.113 37.894-37.894v-486.512c0-20.781-17.113-37.894-37.894-37.894zM99.012 683.369c-7.334 0-13.446-6.112-13.446-13.446v-486.512c0-7.334 6.112-13.446 13.446-13.446h620.975c7.334 0 13.446 6.112 13.446 13.446v486.512c0 7.334-6.112 13.446-13.446 13.446h-620.975zM-0.002 622.25h24.448v-391.166h-24.448v391.166zM794.554 622.25h24.448v-391.166h-24.448v391.166z" />
<glyph unicode="&#xe912;" glyph-name="minus-circle" horiz-adv-x="819" d="M409.5 836.168c-225.681 0-409.501-183.82-409.501-409.501s183.82-409.501 409.501-409.501 409.501 183.82 409.501 409.501-183.82 409.501-409.501 409.501zM409.5 62.666c-201.111 0-364.001 162.891-364.001 364.001s162.891 364.001 364.001 364.001 364.001-162.891 364.001-364.001-162.891-364.001-364.001-364.001zM546 449.417h-273.001c-12.74 0-22.75-10.010-22.75-22.75s10.010-22.75 22.75-22.75h273.001c12.74 0 22.75 10.010 22.75 22.75s-10.010 22.75-22.75 22.75z" />
<glyph unicode="&#xe913;" glyph-name="plus-circle" horiz-adv-x="819" d="M409.5 836.168c-225.681 0-409.501-183.82-409.501-409.501s183.82-409.501 409.501-409.501 409.501 183.82 409.501 409.501-183.82 409.501-409.501 409.501zM409.5 62.666c-201.111 0-364.001 162.891-364.001 364.001s162.891 364.001 364.001 364.001 364.001-162.891 364.001-364.001-162.891-364.001-364.001-364.001zM546 449.417h-113.75v113.75c0 12.74-10.010 22.75-22.75 22.75s-22.75-10.010-22.75-22.75v-113.75h-113.75c-12.74 0-22.75-10.010-22.75-22.75s10.010-22.75 22.75-22.75h113.75v-113.75c0-12.74 10.010-22.75 22.75-22.75s22.75 10.010 22.75 22.75v113.75h113.75c12.74 0 22.75 10.010 22.75 22.75s-10.010 22.75-22.75 22.75z" />
<glyph unicode="&#xe914;" glyph-name="down-small" horiz-adv-x="1159" d="M408.512 477.102l148.212-148.212c1.651-1.651 3.303-2.477 4.954-4.128 0.826-0.826 1.651-0.826 2.477-1.651s2.477-0.826 3.303-1.651 2.477-0.826 3.303-0.826 1.651-0.826 3.303-0.826 4.128-0.826 5.78-0.826c0 0 0 0 0.826 0v0c1.651 0 4.128 0 5.78 0.826 0.826 0 1.651 0.826 2.477 0.826s2.477 0.826 3.303 0.826c0.826 0.826 2.477 0.826 3.303 1.651s1.651 0.826 2.477 1.651 3.303 2.477 4.954 4.128c0 0 0 0 0.826 0l148.212 149.038c13.074 13.074 13.074 33.578 0 46.652-6.606 6.606-14.725 9.771-22.982 9.771s-16.376-3.303-22.982-9.771l-104.588-105.139c-11.835-11.973-31.239-11.973-43.211 0l-104.588 105.139c-6.606 6.606-14.725 9.771-22.982 9.771-6.468 0-12.798-2.064-18.441-6.055-16.927-11.835-18.303-36.468-3.716-51.193z" />
<glyph unicode="&#xe915;" glyph-name="left-small" horiz-adv-x="1159" d="M629.936 597.656l-148.212-148.212c-1.651-1.651-2.477-3.303-4.128-4.954-0.826-0.826-0.826-1.651-1.651-2.477s-0.826-2.477-1.651-3.303-0.826-2.477-0.826-3.303-0.826-1.651-0.826-3.303c0-1.651-0.826-4.128-0.826-5.78 0 0 0 0 0-0.826v0c0-1.651 0-4.128 0.826-5.78 0-0.826 0.826-1.651 0.826-2.477s0.826-2.477 0.826-3.303c0.826-0.826 0.826-2.477 1.651-3.303s0.826-1.651 1.651-2.477 2.477-3.303 4.128-4.954c0 0 0 0 0-0.826l149.038-148.212c13.074-13.074 33.578-13.074 46.652 0 6.606 6.606 9.771 14.725 9.771 22.982s-3.303 16.376-9.771 22.982l-105.139 104.588c-11.973 11.835-11.973 31.239 0 43.211l105.139 104.588c6.606 6.606 9.771 14.725 9.771 22.982 0 6.468-2.064 12.798-6.055 18.441-11.835 16.927-36.468 18.303-51.193 3.716z" />
<glyph unicode="&#xe916;" glyph-name="right-small" horiz-adv-x="1159" d="M529.065 255.678l148.212 148.212c1.651 1.651 2.477 3.303 4.128 4.954 0.826 0.826 0.826 1.651 1.651 2.477s0.826 2.477 1.651 3.303 0.826 2.477 0.826 3.303 0.826 1.651 0.826 3.303c0 1.651 0.826 4.128 0.826 5.78 0 0 0 0 0 0.826v0c0 1.651 0 4.128-0.826 5.78 0 0.826-0.826 1.651-0.826 2.477s-0.826 2.477-0.826 3.303c-0.826 0.826-0.826 2.477-1.651 3.303s-0.826 1.651-1.651 2.477-2.477 3.303-4.128 4.954c0 0 0 0 0 0.826l-149.038 148.212c-13.074 13.074-33.578 13.074-46.652 0-6.606-6.606-9.771-14.725-9.771-22.982s3.303-16.376 9.771-22.982l105.139-104.588c11.973-11.835 11.973-31.239 0-43.211l-105.139-104.588c-6.606-6.606-9.771-14.725-9.771-22.982 0-6.468 2.064-12.798 6.055-18.441 11.835-16.927 36.468-18.303 51.193-3.716z" />
<glyph unicode="&#xe917;" glyph-name="up-small" horiz-adv-x="1159" d="M750.488 376.232l-148.212 148.212c-1.651 1.651-3.303 2.477-4.954 4.128-0.826 0.826-1.651 0.826-2.477 1.651s-2.477 0.826-3.303 1.651c-0.826 0.826-2.477 0.826-3.303 0.826s-1.651 0.826-3.303 0.826c-1.651 0-4.128 0.826-5.78 0.826 0 0 0 0-0.826 0v0c-1.651 0-4.128 0-5.78-0.826-0.826 0-1.651-0.826-2.477-0.826s-2.477-0.826-3.303-0.826c-0.826-0.826-2.477-0.826-3.303-1.651s-1.651-0.826-2.477-1.651-3.303-2.477-4.954-4.128c0 0 0 0-0.826 0l-148.212-149.038c-13.074-13.074-13.074-33.578 0-46.652 6.606-6.606 14.725-9.771 22.982-9.771s16.376 3.303 22.982 9.771l104.588 105.139c11.835 11.973 31.239 11.973 43.211 0l104.588-105.139c6.606-6.606 14.725-9.771 22.982-9.771 6.468 0 12.798 2.064 18.441 6.055 16.927 11.835 18.303 36.468 3.716 51.193z" />
<glyph unicode="&#xe918;" glyph-name="close" horiz-adv-x="819" d="M674.92 690.039c-20.48 20.48-54.886 20.48-75.366 0l-190.054-190.874-190.874 190.874c-20.48 20.48-54.886 20.48-75.366 0s-20.48-54.886 0-75.366l190.874-190.874-190.874-190.054c-20.48-20.48-20.48-54.886 0-75.366 10.65-10.65 23.757-15.565 37.683-15.565s27.034 4.915 37.683 15.565l190.874 190.874 190.874-190.874c10.65-10.65 23.757-15.565 37.683-15.565s27.034 4.915 37.683 15.565c20.48 20.48 20.48 54.886 0 75.366l-190.874 190.054 190.874 190.874c20.48 21.299 20.48 54.886-0.819 75.366z" />
<glyph unicode="&#xe919;" glyph-name="menu-filters" d="M127.68 205.119h700.824c24.864 0 45.216-20.344 45.216-45.216s-20.344-45.216-45.216-45.216h-700.824c-24.864 0-45.216 20.344-45.216 45.216s20.344 45.216 45.216 45.216zM127.68 471.887h768.64c24.864 0 45.216-20.344 45.216-45.216s-20.344-45.216-45.216-45.216h-768.64c-24.864 0-45.216 20.344-45.216 45.216s20.344 45.216 45.216 45.216zM127.68 738.647h610.392c24.864 0 45.216-20.344 45.216-45.216s-20.344-45.216-45.216-45.216h-610.392c-24.864 0-45.216 20.344-45.216 45.216s20.344 45.216 45.216 45.216z" />
<glyph unicode="&#xe91a;" glyph-name="close-thin-large" horiz-adv-x="819" d="M147.448 168.038c5.462-5.462 12.283-8.19 19.109-8.19s13.647 2.728 19.109 8.19l223.829 223.829 223.829-223.829c5.462-5.462 12.283-8.19 19.109-8.19s13.647 2.728 19.109 8.19c10.919 10.919 10.919 27.294 0 38.213l-223.829 225.193 212.91 212.91c10.919 10.919 10.919 27.294 0 38.213s-27.294 10.919-38.213 0l-212.91-212.91-212.91 212.91c-10.919 10.919-27.294 10.919-38.213 0s-10.919-27.294 0-38.213l212.91-212.91-223.829-223.829c-10.919-10.919-10.919-28.663 0-39.582z" />
<glyph unicode="&#xe91b;" glyph-name="down-arrow-thin-large" horiz-adv-x="819" d="M663.071 580.286l-253.571-253.571-253.571 253.571c-10.733 10.733-26.833 10.733-37.566 0s-10.733-26.833 0-37.566l272.354-272.354c5.368-5.368 12.074-8.050 18.783-8.050s13.415 2.682 18.783 8.050l272.354 272.354c10.733 10.733 10.733 26.833 0 37.566s-28.174 10.733-37.566 0z" />
<glyph unicode="&#xe91c;" glyph-name="left-arrow-thin-large" horiz-adv-x="819" d="M561.53 711.486c-10.264 10.264-25.659 10.264-35.923 0l-268.142-268.142c-10.264-10.264-10.264-25.659 0-35.923l268.142-268.142c5.132-5.132 11.548-7.695 17.964-7.695s12.832 2.563 17.964 7.695c10.264 10.264 10.264 25.659 0 35.923l-250.179 250.179 250.179 250.179c10.264 10.264 10.264 25.659 0 35.923z" />
<glyph unicode="&#xe91d;" glyph-name="right-arrow-thin-large" horiz-adv-x="819" d="M257.464 139.281c5.132-5.132 11.548-7.695 17.964-7.695s12.832 2.563 17.964 7.695l268.142 268.142c10.264 10.264 10.264 25.659 0 35.923l-268.142 268.142c-10.264 10.264-25.659 10.264-35.923 0s-10.264-25.659 0-35.923l250.179-250.179-250.179-250.179c-10.264-10.264-10.264-25.659 0-35.923z" />
<glyph unicode="&#xe91e;" glyph-name="up-arrow-thin-large" horiz-adv-x="819" d="M392.113 581.139l-272.834-271.496c-10.7-10.7-10.7-26.749 0-37.449s26.749-10.7 37.449 0l252.773 252.773 252.773-252.773c5.35-5.35 12.038-8.023 18.723-8.023s13.373 2.673 18.723 8.023c10.7 10.7 10.7 26.749 0 37.449l-270.157 271.496c-10.7 10.7-28.084 10.7-37.449 0z" />
<glyph unicode="&#xe91f;" glyph-name="naver-line-logo" d="M434.663 551.982h-26.495c-4.297 0-7.161-3.58-7.161-7.161v-162.551c0-4.297 3.58-7.161 7.161-7.161h26.495c4.297 0 7.161 3.58 7.161 7.161v162.551c0 4.297-3.58 7.161-7.161 7.161zM614.4 551.982h-26.495c-4.297 0-7.161-3.58-7.161-7.161v0-96.671l-74.473 100.252c0 0-0.716 0.716-0.716 0.716v0c0 0 0 0-0.716 0.716v0c0 0 0 0-0.716 0 0 0 0 0 0 0h-0.716c0 0 0 0-0.716 0v0c0 0 0 0-0.716 0v0h-1.432c0 0 0 0-0.716 0h-25.063c-4.297 0-7.161-3.58-7.161-7.161v-162.551c0-4.297 3.58-7.161 7.161-7.161h26.495c4.297 0 7.161 3.58 7.161 7.161 0 0 0 0 0 0v98.82l74.473-100.968c0.716-0.716 1.432-1.432 2.148-1.432v0c0 0 0 0 0.716 0v0 0h1.432c0.716 0 1.432 0 2.148 0h26.495c4.297 0 7.161 3.58 7.161 7.161 0 0 0 0 0 0v161.119c-1.432 4.297-4.297 7.161-8.593 7.161 0 0 0 0 0 0zM371.648 415.926h-70.892v128.895c0 4.297-3.58 7.161-7.161 7.161v0h-26.495c-4.297 0-7.161-3.58-7.161-7.161v-162.551c0-2.148 0.716-3.58 2.148-5.013 0 0 0 0 0 0v0c1.432-1.432 2.864-2.148 5.013-2.148h104.548c4.297 0 7.161 3.58 7.161 7.161v26.495c0 4.297-3.58 7.161-7.161 7.161 0 0 0 0 0 0zM759.049 551.982h-104.548c-2.148 0-3.58-0.716-5.013-2.148 0 0 0 0 0 0v0c-1.432-1.432-2.148-2.864-2.148-5.013v-162.551c0-2.148 0.716-3.58 2.148-5.013v0 0c1.432-1.432 2.864-2.148 5.013-2.148h104.548c4.297 0 7.161 3.58 7.161 7.161 0 0 0 0 0 0v26.495c0 4.297-3.58 7.161-7.161 7.161v0h-70.892v27.211h70.892c4.297 0 7.161 3.58 7.161 7.161v0 26.495c0 4.297-3.58 7.161-7.161 7.161 0 0 0 0 0 0h-70.892v27.211h70.892c4.297 0 7.161 3.58 7.161 7.161v0 26.495c0 4.297-3.58 7.161-7.161 7.161 0 0 0 0 0 0zM838.534 938.667h-651.636c-103.116 0-186.182-82.35-186.898-185.466v-651.636c0-102.4 82.35-186.182 185.466-186.898h652.352c102.4 0 186.182 82.35 186.898 185.466v651.636c-0.716 103.116-83.782 186.182-186.182 186.898zM803.446 285.598v0c-78.053-90.227-252.778-199.787-292.878-216.257s-33.656 10.741-32.224 20.050c0.716 5.729 5.013 32.224 5.013 32.224 2.148 11.457 1.432 22.915-1.432 33.656-4.297 10.025-20.766 15.754-32.94 18.618-179.021 23.631-311.497 148.945-311.497 298.607 0 166.131 167.564 301.471 373.080 301.471s373.080-135.34 373.080-302.187c-0.716-66.596-26.495-126.747-80.201-186.182z" />
</font></defs></svg>